第十二章例子 | _main.knit
…
求解rxode2模型与保存简单的ODE系统相同，但当然更快。

et  <- et(seq(0,24,length.out=50))
cmt1 <- rxSolve(mod,et,params=c(ke=0.5))
cmt1

#> ── Solved rxode2 object ──
#> ── Parameters (x$params): ──
#>  ke 
#> 0.5 
#> ── Initial Conditions (x$inits): ──
#> named numeric(0)
#> ── First part of data (object): ──
#> # A tibble: 50 × 2
#>    time  ipre
#>   <dbl> <dbl>
#> 1 0     10   
#> 2 0.490  7.83
#> 3 0.980  6.13
#> 4 1.47   4.80
#> 5 1.96   3.75
#> 6 2.45   2.94
#> # … with 44 more rows
…
然后它将充当ODE模型;您可以在指定一次给药至depot房室事件后，求解这个系统：

et  <- et(amt=10,time=0,cmt=depot) %>%
    et(seq(0,24,length.out=50))
cmt1 <- rxSolve(mod,et,params=c(ke=0.5))
cmt1

#> ── Solved rxode2 object ──
#> ── Parameters (x$params): ──
#>  ke   V 
#> 0.5 1.0 
#> ── Initial Conditions (x$inits): ──
#> named numeric(0)
#> ── First part of data (object): ──
#> # A tibble: 50 × 2
#>    time  ipre
#>   <dbl> <dbl>
#> 1 0     10   
#> 2 0.490  7.83
#> 3 0.980  6.13
#> 4 1.47   4.80
#> 5 1.96   3.75
#> 6 2.45   2.94
#> # … with 44 more rows
…
这可以通过以下命令求解：

x <- mod2 %>%  solve(theta, ev)
print(x)

#> ── Solved rxode2 object ──
#> ── Parameters ($params): ──
#>      CL      V2       Q      V3      KA     Kin    Kout    EC50 
#>  18.600  40.200  10.500 297.000   0.294   1.000   1.000 200.000 
#> ── Initial Conditions ($inits): ──
#> eff 
#>   1 
#> ── First part of data (object): ──
#> # A tibble: 241 × 3
#>   time    C2   eff
#>    [h] <dbl> <dbl>
#> 1    0 249.   1   
#> 2    1 121.   1.35
#> 3    2  60.3  1.38
#> 4    3  31.0  1.28
#> 5    4  17.0  1.18
#> 6    5  10.2  1.11
#> # … with 235 more rows
…
这可以轻松的实现对不同的初始条件的求解：

x <- mod2 %>%  solve(theta, ev,c(eff=2))
print(x)

#> ── Solved rxode2 object ──
#> ── Parameters ($params): ──
#>      CL      V2       Q      V3      KA     Kin    Kout    EC50 
#>  18.600  40.200  10.500 297.000   0.294   1.000   1.000 200.000 
#> ── Initial Conditions ($inits): ──
#> eff 
#>   2 
#> ── First part of data (object): ──
#> # A tibble: 241 × 3
#>   time    C2   eff
#>    [h] <dbl> <dbl>
#> 1    0 249.   2   
#> 2    1 121.   1.93
#> 3    2  60.3  1.67
#> 4    3  31.0  1.41
#> 5    4  17.0  1.23
#> 6    5  10.2  1.13
#> # … with 235 more rows
…
x <- mod3 %>%  solve(ev)
print(x)

#> ── Solved rxode2 object ──
#> ── Parameters ($params): ──
#>      KA      CL      V2       Q      V3     Kin    Kout    EC50 
#>   0.294  18.600  40.200  10.500 297.000   1.000   1.000 200.000 
#> ── Initial Conditions ($inits): ──
#> eff 
#>   1 
#> ── First part of data (object): ──
#> # A tibble: 241 × 3
#>   time    C2   eff
#>    [h] <dbl> <dbl>
#> 1    0 249.   1   
#> 2    1 121.   1.35
#> 3    2  60.3  1.38
#> 4    3  31.0  1.28
#> 5    4  17.0  1.18
#> 6    5  10.2  1.11
#> # … with 235 more rows

请注意，您在求解上述模型系统时不需要指定参数，因为它们已经内置在模型中，但您可以覆盖参数：

x <- mod3 %>%  solve(c(KA=10),ev)
print(x)

#> ── Solved rxode2 object ──
#> ── Parameters ($params): ──
#>    KA    CL    V2     Q    V3   Kin  Kout  EC50 
#>  10.0  18.6  40.2  10.5 297.0   1.0   1.0 200.0 
#> ── Initial Conditions ($inits): ──
#> eff 
#>   1 
#> ── First part of data (object): ──
#> # A tibble: 241 × 3
#>   time    C2   eff
#>    [h] <dbl> <dbl>
#> 1    0 249.   1   
#> 2    1 121.   1.35
#> 3    2  60.3  1.38
#> 4    3  31.0  1.28
#> 5    4  17.0  1.18
#> 6    5  10.2  1.11
#> # … with 235 more rows
…
library(dplyr)
nsub=30
### Simulate Weight based on age and gender
AGE<-round(runif(nsub,min=18,max=70))
SEX<-round(runif(nsub,min=0,max=1))
HTm<-round(rnorm(nsub,176.3,0.17*sqrt(4482)),digits=1)
HTf<-round(rnorm(nsub,162.2,0.16*sqrt(4857)),digits=1)
WTm<-round(exp(3.28+1.92*log(HTm/100))*exp(rnorm(nsub,0,0.14)),digits=1)
WTf<-round(exp(3.49+1.45*log(HTf/100))*exp(rnorm(nsub,0,0.17)),digits=1)
WT<-ifelse(SEX==1,WTf,WTm)
CRCL<-round(runif(nsub,30,140))
## id is in lower case to match the event table
cov.df <- tibble(id=seq_along(AGE), AGE=AGE, SEX=SEX, WT=WT, CRCL=CRCL)
print(cov.df)
#> # A tibble: 30 x 5
#>       id   AGE   SEX    WT  CRCL
#>    <int> <dbl> <dbl> <dbl> <dbl>
#>  1     1    66     1  49.4    83
#>  2     2    67     1  52.5    79
#>  3     3    33     0  97.9    37
#>  4     4    61     1  63.8    66
#>  5     5    51     0  71.8   127
#>  6     6    45     1  69.6   132
#>  7     7    56     0  61      73
#>  8     8    25     0  57.7    47
#>  9     9    52     1  58.7    65
#> 10    10    55     1  73.1    64
#> # ... with 20 more rows
…
e <- et() %>%
    ## Specify the id and weight based dosing from covariate data.frame
    ## This requires rxode2 XXX 
    et(id=cov.df$id, amt=6*cov.df$WT, rate=6 * cov.df$WT) %>%
    ## Sampling is added for each ID
    et(s) %>%
    as.data.frame %>%
    ## Merge the event table with the covarite information
    merge(cov.df, by="id") %>%
    as_tibble

e

#> # A tibble: 900 x 12
#>       id    low  time   high cmt         amt  rate  evid   AGE   SEX    WT  CRCL
#>    <int>  <dbl> <dbl>  <dbl> <chr>     <dbl> <dbl> <int> <dbl> <dbl> <dbl> <dbl>
#>  1     1  0     0      0     (obs)       NA    NA      0    66     1  49.4    83
#>  2     1 NA     0     NA     (default)  296.  296.     1    66     1  49.4    83
#>  3     1  0.225 0.246  0.275 (obs)       NA    NA      0    66     1  49.4    83
#>  4     1  0.45  0.516  0.55  (obs)       NA    NA      0    66     1  49.4    83
#>  5     1  0.675 0.729  0.825 (obs)       NA    NA      0    66     1  49.4    83
#>  6     1  0.9   0.921  1.1   (obs)       NA    NA      0    66     1  49.4    83
#>  7     1  1.35  1.42   1.65  (obs)       NA    NA      0    66     1  49.4    83
#>  8     1  1.8   1.82   2.2   (obs)       NA    NA      0    66     1  49.4    83
#>  9     1  2.7   2.97   3.3   (obs)       NA    NA      0    66     1  49.4    83
#> 10     1  3.6   3.87   4.4   (obs)       NA    NA      0    66     1  49.4    83
#> # ... with 890 more rows
…
data <- rxSolve(m1, e,
             ## Lotri uses lower-triangular matrix rep. for named matrix
             omega=lotri(eta.cl ~ .306, 
                         eta.q ~0.0652,
                         eta.v1 ~.567,
                         eta.v2 ~ .191),
             sigma=lotri(prop.err ~ 0.15),
             addDosing = TRUE, addCov = TRUE)

print(data)

#> -- Solved rxode2 object --
#> -- Parameters ($params): --
#> # A tibble: 30 x 5
#>    id    eta.cl eta.v1   eta.q  eta.v2
#>    <fct>  <dbl>  <dbl>   <dbl>   <dbl>
#>  1 1     -0.147  0.112  0.284  -0.187 
#>  2 2     -0.280 -0.189  0.222  -0.843 
#>  3 3      0.515  0.471  0.0387 -0.687 
#>  4 4     -0.359  0.351  0.269   0.146 
#>  5 5      0.565 -0.240  0.363   0.330 
#>  6 6     -0.991  1.95   0.0108 -0.352 
#>  7 7     -0.604 -1.19   0.0556  0.0760
#>  8 8     -0.500 -0.212  0.315   0.902 
#>  9 9      1.33   0.317 -0.0113  0.164 
#> 10 10     0.201  0.390  0.182  -0.277 
#> # ... with 20 more rows
#> -- Initial Conditions ($inits): --
#> centr  peri 
#>     0     0 
#> -- First part of data (object): --
#> # A tibble: 900 x 9
#>      id  evid   cmt   amt  time    DV   SEX    WT  CRCL
#>   <int> <int> <int> <dbl> <dbl> <dbl> <dbl> <dbl> <dbl>
#> 1     1     1     1  296. 0      0        1  49.4    83
#> 2     1     0    NA   NA  0      0        1  49.4    83
#> 3     1     0    NA   NA  0.246  7.72     1  49.4    83
#> 4     1     0    NA   NA  0.516 21.2      1  49.4    83
#> 5     1     0    NA   NA  0.729 27.4      1  49.4    83
#> 6     1     0    NA   NA  0.921 39.1      1  49.4    83
#> # ... with 894 more rows
…
#> unhandled error message: EE:[lsoda] 70000 steps taken before reaching tout
#>  @(lsoda.c:750

#> Warning: some ID(s) could not solve the ODEs correctly; These values are
#> replaced with 'NA'

print(s)

#> -- Solved rxode2 object --
#> -- Parameters ($params): --
#> # A tibble: 8,000 x 24
#>    sim.id id    inv.Cl~1 inv.C~2 inv.K~3 inv.K~4 eye.C~5 eye.C~6 eye.K~7 eye.K~8
#>     <int> <fct>    <dbl>   <dbl>   <dbl>   <dbl>   <dbl>   <dbl>   <dbl>   <dbl>
#>  1      1 1       -0.202   0.314  -0.260   0.170  0.171  -0.420  -0.140  -0.472 
#>  2      1 2       -0.202   0.314  -0.260   0.170  0.0361  0.0354  0.0821 -0.418 
#>  3      1 3       -0.202   0.314  -0.260   0.170  0.269   0.0473 -0.484  -0.101 
#>  4      1 4       -0.202   0.314  -0.260   0.170 -0.231  -0.180  -0.131   0.0724
#>  5      1 5       -0.202   0.314  -0.260   0.170 -0.368   0.129   0.501   0.172 
#>  6      1 6       -0.202   0.314  -0.260   0.170 -0.113  -0.208  -0.590  -0.334 
#>  7      1 7       -0.202   0.314  -0.260   0.170 -0.276   0.117  -0.254  -0.148 
#>  8      1 8       -0.202   0.314  -0.260   0.170  0.231  -0.0689  0.129   0.507 
#>  9      1 9       -0.202   0.314  -0.260   0.170 -0.292  -0.344   0.107   0.232 
#> 10      1 10      -0.202   0.314  -0.260   0.170 -0.293   0.0939 -0.514  -0.185 
#> # ... with 7,990 more rows, 14 more variables: `iov.Cl(occ==1)` <dbl>,
#> #   `iov.Cl(occ==2)` <dbl>, `iov.Ka(occ==1)` <dbl>, `iov.Ka(occ==2)` <dbl>,
#> #   V2 <dbl>, V3 <dbl>, TCl <dbl>, eta.Cl <dbl>, TKA <dbl>, eta.Ka <dbl>,
#> #   Q <dbl>, Kin <dbl>, Kout <dbl>, EC50 <dbl>, and abbreviated variable names
#> #   1: `inv.Cl(inv==1)`, 2: `inv.Cl(inv==2)`, 3: `inv.Ka(inv==1)`,
#> #   4: `inv.Ka(inv==2)`, 5: `eye.Cl(eye==1)`, 6: `eye.Cl(eye==2)`,
#> #   7: `eye.Ka(eye==1)`, 8: `eye.Ka(eye==2)`
#> -- Initial Conditions ($inits): --
#> depot centr  peri   eff 
#>     0     0     0     1 
#> 
#> Simulation with uncertainty in:
#> * parameters ($thetaMat for changes)
#> * omega matrix ($omegaList)
#> 
#> -- First part of data (object): --
#> # A tibble: 976,000 x 21
#>   sim.id    id time inv.Cl inv.Ka eye.Cl eye.Ka  iov.Cl iov.Ka     C2       C3
#>    <int> <int>  [h]  <dbl>  <dbl>  <dbl>  <dbl>   <dbl>  <dbl>  <dbl>    <dbl>
#> 1      1     1  0   -0.202 -0.260  0.171 -0.140 -0.0381 0.0391   0     0      
#> 2      1     1  0.1 -0.202 -0.260 -0.420 -0.472 -0.0381 0.0391  -2.95 -0.00314
#> 3      1     1  4   -0.202 -0.260  0.171 -0.140 -0.0381 0.0391 -53.9  -2.18   
#> 4      1     1  4.1 -0.202 -0.260 -0.420 -0.472 -0.0381 0.0391 -36.2  -2.27   
#> 5      1     1  8   -0.202 -0.260  0.171 -0.140 -0.0381 0.0391 -58.0  -6.11   
#> 6      1     1  8.1 -0.202 -0.260 -0.420 -0.472 -0.0381 0.0391 -22.8  -6.22   
#> # ... with 975,994 more rows, and 10 more variables: CL <dbl>, KA <dbl>,
#> #   ef0 <dbl>, depot <dbl>, centr <dbl>, peri <dbl>, eff <dbl>, occ <fct>,
#> #   eye <fct>, inv <fct>
…
